2015-01-16 12:14:34,304 [15] WARN  CatalogProductsProcessing - Starting Eproc2.BM.Logic.Catalog.ProcessPendingProductsProcess task
2015-01-16 12:14:34,382 [15] WARN  CatalogProductsProcessing - Found 0 records to process
2015-01-16 12:14:34,382 [15] WARN  CatalogProductsProcessing - Starting Eproc2.BM.Logic.Catalog.ProcessPendingProductsProcess task
2015-01-16 12:14:34,522 [15] WARN  CatalogProductsProcessing - Found 0 records to process
2015-01-16 12:14:34,522 [15] WARN  CatalogProductsProcessing - Starting Eproc2.Core.Logic.Administration.ProcessPendingPriceListItemsProcess task
2015-01-16 12:14:34,616 [15] WARN  CatalogProductsProcessing - Found 0 records to process
2015-01-16 12:14:34,616 [15] WARN  CatalogProductsProcessing - Starting Eproc2.Core.Logic.Administration.ProcessPendingPriceListItemsProcess task
2015-01-16 12:14:34,631 [15] WARN  CatalogProductsProcessing - Found 0 records to process
