2015-02-09 09:03:37,424 [11] WARN  CatalogProductsProcessing - Starting Eproc2.BM.Logic.Catalog.ProcessPendingProductsProcess task
2015-02-09 09:03:37,489 [11] WARN  CatalogProductsProcessing - Found 0 records to process
2015-02-09 09:03:37,492 [11] WARN  CatalogProductsProcessing - Starting Eproc2.BM.Logic.Catalog.ProcessPendingProductsProcess task
2015-02-09 09:03:37,517 [11] WARN  CatalogProductsProcessing - Found 0 records to process
2015-02-09 09:03:37,518 [11] WARN  CatalogProductsProcessing - Starting Eproc2.Core.Logic.Administration.ProcessPendingPriceListItemsProcess task
2015-02-09 09:03:37,546 [11] WARN  CatalogProductsProcessing - Found 0 records to process
2015-02-09 09:03:37,546 [11] WARN  CatalogProductsProcessing - Starting Eproc2.Core.Logic.Administration.ProcessPendingPriceListItemsProcess task
2015-02-09 09:03:37,553 [11] WARN  CatalogProductsProcessing - Found 0 records to process
