2015-01-28 10:18:44,546 [4] ERROR Qulix.DataAccess.NHibernateDal.StaticProxyFactory - Not proxy type found for persistent class 'Eproc2.Core.Entities.PendingProductAttributeEntity' using proxy key 'Eproc2.Core.Entities.PendingProductAttributeEntity'
2015-01-28 10:18:44,546 [4] WARN  NHibernate.Tuple.Entity.PocoEntityTuplizer - could not create proxy factory for:Eproc2.Core.Entities.PendingProductAttributeEntity
NHibernate.HibernateException: Not proxy type found for persistent class 'Eproc2.Core.Entities.PendingProductAttributeEntity' using proxy key 'Eproc2.Core.Entities.PendingProductAttributeEntity'
   at Qulix.DataAccess.NHibernateDal.StaticProxyFactory.PostInstantiate(String entityName, Type persistentClass, ISet`1 interfaces, MethodInfo getIdentifierMethod, MethodInfo setIdentifierMethod, IAbstractComponentType componentIdType)
   at NHibernate.Tuple.Entity.PocoEntityTuplizer.BuildProxyFactory(PersistentClass persistentClass, IGetter idGetter, ISetter idSetter)
2015-01-28 10:18:44,562 [4] ERROR Qulix.DataAccess.NHibernateDal.StaticProxyFactory - Not proxy type found for persistent class 'Eproc2.Core.Entities.PendingProductAttributeValueEntity' using proxy key 'Eproc2.Core.Entities.PendingProductAttributeValueEntity'
2015-01-28 10:18:44,562 [4] WARN  NHibernate.Tuple.Entity.PocoEntityTuplizer - could not create proxy factory for:Eproc2.Core.Entities.PendingProductAttributeValueEntity
NHibernate.HibernateException: Not proxy type found for persistent class 'Eproc2.Core.Entities.PendingProductAttributeValueEntity' using proxy key 'Eproc2.Core.Entities.PendingProductAttributeValueEntity'
   at Qulix.DataAccess.NHibernateDal.StaticProxyFactory.PostInstantiate(String entityName, Type persistentClass, ISet`1 interfaces, MethodInfo getIdentifierMethod, MethodInfo setIdentifierMethod, IAbstractComponentType componentIdType)
   at NHibernate.Tuple.Entity.PocoEntityTuplizer.BuildProxyFactory(PersistentClass persistentClass, IGetter idGetter, ISetter idSetter)
2015-01-28 10:18:44,624 [4] ERROR Qulix.DataAccess.NHibernateDal.StaticProxyFactory - Not proxy type found for persistent class 'Eproc2.Core.Entities.ProductAttributeEntity' using proxy key 'Eproc2.Core.Entities.ProductAttributeEntity'
2015-01-28 10:18:44,624 [4] WARN  NHibernate.Tuple.Entity.PocoEntityTuplizer - could not create proxy factory for:Eproc2.Core.Entities.ProductAttributeEntity
NHibernate.HibernateException: Not proxy type found for persistent class 'Eproc2.Core.Entities.ProductAttributeEntity' using proxy key 'Eproc2.Core.Entities.ProductAttributeEntity'
   at Qulix.DataAccess.NHibernateDal.StaticProxyFactory.PostInstantiate(String entityName, Type persistentClass, ISet`1 interfaces, MethodInfo getIdentifierMethod, MethodInfo setIdentifierMethod, IAbstractComponentType componentIdType)
   at NHibernate.Tuple.Entity.PocoEntityTuplizer.BuildProxyFactory(PersistentClass persistentClass, IGetter idGetter, ISetter idSetter)
2015-01-28 10:18:44,624 [4] ERROR Qulix.DataAccess.NHibernateDal.StaticProxyFactory - Not proxy type found for persistent class 'Eproc2.Core.Entities.ProductAttributeValueEntity' using proxy key 'Eproc2.Core.Entities.ProductAttributeValueEntity'
2015-01-28 10:18:44,624 [4] WARN  NHibernate.Tuple.Entity.PocoEntityTuplizer - could not create proxy factory for:Eproc2.Core.Entities.ProductAttributeValueEntity
NHibernate.HibernateException: Not proxy type found for persistent class 'Eproc2.Core.Entities.ProductAttributeValueEntity' using proxy key 'Eproc2.Core.Entities.ProductAttributeValueEntity'
   at Qulix.DataAccess.NHibernateDal.StaticProxyFactory.PostInstantiate(String entityName, Type persistentClass, ISet`1 interfaces, MethodInfo getIdentifierMethod, MethodInfo setIdentifierMethod, IAbstractComponentType componentIdType)
   at NHibernate.Tuple.Entity.PocoEntityTuplizer.BuildProxyFactory(PersistentClass persistentClass, IGetter idGetter, ISetter idSetter)
2015-01-28 10:19:16,688 [748e03c8-dc1f-48d9-bb2e-fa8b79e70be5] WARN  Eproc2.Core.Logic.TaskManagement.ITaskManager - Start executing PO generation task for SO=9b4a13cf-6aff-4376-a6a1-a2c400e7d288
2015-01-28 10:19:16,703 [748e03c8-dc1f-48d9-bb2e-fa8b79e70be5] WARN  Eproc2.Core.Logic.Base.BloBase - Trying to group appointments for SO.Id=9b4a13cf-6aff-4376-a6a1-a2c400e7d288
2015-01-28 10:19:16,703 [748e03c8-dc1f-48d9-bb2e-fa8b79e70be5] WARN  Eproc2.Core.Logic.Base.BloBase - SO grouping start date=2/3/2014 12:00:00 AM, OrderGroupPeriod=4
2015-01-28 10:19:16,703 [748e03c8-dc1f-48d9-bb2e-fa8b79e70be5] WARN  Eproc2.Core.Logic.Base.BloBase - Searching for unused appointments in range between 3/3/2014 12:00:00 AM and 3/30/2014 12:00:00 AM
2015-01-28 10:19:16,797 [748e03c8-dc1f-48d9-bb2e-fa8b79e70be5] WARN  Eproc2.Core.Logic.Base.BloBase - Found 12 appointments
2015-01-28 10:19:16,812 [748e03c8-dc1f-48d9-bb2e-fa8b79e70be5] WARN  Eproc2.Core.Logic.Base.BloBase - Set PO GenerationStartDate=3/3/2014 12:00:00 AM, GroupingPeriodEndDate3/30/2014 12:00:00 AM
2015-01-28 10:19:16,875 [748e03c8-dc1f-48d9-bb2e-fa8b79e70be5] WARN  Eproc2.Core.Logic.Base.BloBase - Generating PI for SO.Prototype id=685dd184-e605-48e0-803d-a2c400e7d288
2015-01-28 10:19:17,118 [748e03c8-dc1f-48d9-bb2e-fa8b79e70be5] FATAL Eproc2.Core.Logic.TaskManagement.ITaskManager - Exception occured in thread '748e03c8-dc1f-48d9-bb2e-fa8b79e70be5' during task execution: TaskId: aa4a91ef-9c2d-40da-ba30-15a877e025a8, Task: CreatePOActionTask
Context: Principal id: 84e00a31-26e4-4aa4-a1e7-963b27237fb8
System.NullReferenceException: Object reference not set to an instance of an object.
   at (Object , Object[] , SetterCallback )
   at NHibernate.Bytecode.Lightweight.AccessOptimizer.SetPropertyValues(Object target, Object[] values)
   at Qulix.Utils.ReflectUtil.ConvertToGenericList[T](IList list, List`1 properties)
   at Eproc2.Core.Entities.EntityHelper.ConvertToGenericList[T](IList list, List`1 properties)
   at Eproc2.BM.Logic.Process.POBlo.GetActualPurchaseItem(BM_POPrototypeEntity prototype)
   at Eproc2.BM.Logic.Process.POBlo.CreateEntity(IEnumerable`1 prototypes, BM_ScheduleOrderEntity so, DateTime creationDate, DateTime groupingStartDate, DateTime groupingEndDate)
   at Eproc2.BM.Logic.Process.POBlo.GeneratePoForSo(BM_ScheduleOrderEntity so)
   at Eproc2.BM.Logic.Process.POGenerationTask.ExecuteInternal()
   at Eproc2.Core.Logic.TaskManagement.TaskBase.Execute()
   at Eproc2.Core.Logic.TaskManagement.TaskThreadPool.ThreadProc()
2015-01-28 10:19:17,383 [748e03c8-dc1f-48d9-bb2e-fa8b79e70be5] WARN  Eproc2.Core.Logic.TaskManagement.ITaskManager - Start executing PO generation task for SO=4c7c6129-a764-4f03-93e1-a0d800e2e67e
2015-01-28 10:19:17,383 [748e03c8-dc1f-48d9-bb2e-fa8b79e70be5] WARN  Eproc2.Core.Logic.Base.BloBase - Trying to group appointments for SO.Id=4c7c6129-a764-4f03-93e1-a0d800e2e67e
2015-01-28 10:19:17,383 [748e03c8-dc1f-48d9-bb2e-fa8b79e70be5] WARN  Eproc2.Core.Logic.Base.BloBase - SO grouping start date=4/1/2013 12:00:00 AM, OrderGroupPeriod=4
2015-01-28 10:19:17,383 [748e03c8-dc1f-48d9-bb2e-fa8b79e70be5] WARN  Eproc2.Core.Logic.Base.BloBase - Searching for unused appointments in range between 2/2/2015 12:00:00 AM and 3/1/2015 12:00:00 AM
2015-01-28 10:19:17,383 [748e03c8-dc1f-48d9-bb2e-fa8b79e70be5] WARN  Eproc2.Core.Logic.Base.BloBase - Found 0 appointments
2015-01-28 10:19:17,383 [748e03c8-dc1f-48d9-bb2e-fa8b79e70be5] WARN  Eproc2.Core.Logic.Base.BloBase - Abort grouping: No appointments to group. Setting so.LGPED=3/1/2015 12:00:00 AM
2015-01-28 10:19:17,398 [748e03c8-dc1f-48d9-bb2e-fa8b79e70be5] WARN  Eproc2.Core.Logic.TaskManagement.ITaskManager - Assuming that not all SOs are processed.Pushing another task
2015-01-28 10:19:17,920 [748e03c8-dc1f-48d9-bb2e-fa8b79e70be5] WARN  Eproc2.Core.Logic.TaskManagement.ITaskManager - Start executing PO generation task for SO=94a78043-7657-444b-b89e-a0f900a62940
2015-01-28 10:19:17,920 [748e03c8-dc1f-48d9-bb2e-fa8b79e70be5] WARN  Eproc2.Core.Logic.Base.BloBase - Trying to group appointments for SO.Id=94a78043-7657-444b-b89e-a0f900a62940
2015-01-28 10:19:17,920 [748e03c8-dc1f-48d9-bb2e-fa8b79e70be5] WARN  Eproc2.Core.Logic.Base.BloBase - SO grouping start date=4/1/2013 12:00:00 AM, OrderGroupPeriod=4
2015-01-28 10:19:17,920 [748e03c8-dc1f-48d9-bb2e-fa8b79e70be5] WARN  Eproc2.Core.Logic.Base.BloBase - Searching for unused appointments in range between 2/2/2015 12:00:00 AM and 3/1/2015 12:00:00 AM
2015-01-28 10:19:17,925 [748e03c8-dc1f-48d9-bb2e-fa8b79e70be5] WARN  Eproc2.Core.Logic.Base.BloBase - Found 0 appointments
2015-01-28 10:19:17,925 [748e03c8-dc1f-48d9-bb2e-fa8b79e70be5] WARN  Eproc2.Core.Logic.Base.BloBase - Abort grouping: No appointments to group. Setting so.LGPED=3/1/2015 12:00:00 AM
2015-01-28 10:19:17,959 [748e03c8-dc1f-48d9-bb2e-fa8b79e70be5] WARN  Eproc2.Core.Logic.TaskManagement.ITaskManager - Assuming that not all SOs are processed.Pushing another task
2015-01-28 10:19:18,429 [748e03c8-dc1f-48d9-bb2e-fa8b79e70be5] WARN  Eproc2.Core.Logic.TaskManagement.ITaskManager - Start executing PO generation task for SO=ebba5790-2fa2-4db7-b311-a11800a817bd
2015-01-28 10:19:18,429 [748e03c8-dc1f-48d9-bb2e-fa8b79e70be5] WARN  Eproc2.Core.Logic.Base.BloBase - Trying to group appointments for SO.Id=ebba5790-2fa2-4db7-b311-a11800a817bd
2015-01-28 10:19:18,429 [748e03c8-dc1f-48d9-bb2e-fa8b79e70be5] WARN  Eproc2.Core.Logic.Base.BloBase - SO grouping start date=4/1/2013 12:00:00 AM, OrderGroupPeriod=4
2015-01-28 10:19:18,429 [748e03c8-dc1f-48d9-bb2e-fa8b79e70be5] WARN  Eproc2.Core.Logic.Base.BloBase - Searching for unused appointments in range between 2/2/2015 12:00:00 AM and 3/1/2015 12:00:00 AM
2015-01-28 10:19:18,431 [748e03c8-dc1f-48d9-bb2e-fa8b79e70be5] WARN  Eproc2.Core.Logic.Base.BloBase - Found 0 appointments
2015-01-28 10:19:18,431 [748e03c8-dc1f-48d9-bb2e-fa8b79e70be5] WARN  Eproc2.Core.Logic.Base.BloBase - Abort grouping: No appointments to group. Setting so.LGPED=3/1/2015 12:00:00 AM
2015-01-28 10:19:18,436 [748e03c8-dc1f-48d9-bb2e-fa8b79e70be5] WARN  Eproc2.Core.Logic.TaskManagement.ITaskManager - Assuming that not all SOs are processed.Pushing another task
2015-01-28 10:19:18,830 [748e03c8-dc1f-48d9-bb2e-fa8b79e70be5] WARN  Eproc2.Core.Logic.TaskManagement.ITaskManager - Start executing PO generation task for SO=c1a77ccd-75a3-4020-954a-a04d011cc621
2015-01-28 10:19:18,830 [748e03c8-dc1f-48d9-bb2e-fa8b79e70be5] WARN  Eproc2.Core.Logic.Base.BloBase - Trying to group appointments for SO.Id=c1a77ccd-75a3-4020-954a-a04d011cc621
2015-01-28 10:19:18,830 [748e03c8-dc1f-48d9-bb2e-fa8b79e70be5] WARN  Eproc2.Core.Logic.Base.BloBase - SO grouping start date=4/1/2013 12:00:00 AM, OrderGroupPeriod=4
2015-01-28 10:19:18,830 [748e03c8-dc1f-48d9-bb2e-fa8b79e70be5] WARN  Eproc2.Core.Logic.Base.BloBase - Searching for unused appointments in range between 2/2/2015 12:00:00 AM and 3/1/2015 12:00:00 AM
2015-01-28 10:19:18,846 [748e03c8-dc1f-48d9-bb2e-fa8b79e70be5] WARN  Eproc2.Core.Logic.Base.BloBase - Found 0 appointments
2015-01-28 10:19:18,846 [748e03c8-dc1f-48d9-bb2e-fa8b79e70be5] WARN  Eproc2.Core.Logic.Base.BloBase - Abort grouping: No appointments to group. Setting so.LGPED=3/1/2015 12:00:00 AM
2015-01-28 10:19:18,861 [748e03c8-dc1f-48d9-bb2e-fa8b79e70be5] WARN  Eproc2.Core.Logic.TaskManagement.ITaskManager - Assuming that not all SOs are processed.Pushing another task
2015-01-28 10:19:19,204 [748e03c8-dc1f-48d9-bb2e-fa8b79e70be5] WARN  Eproc2.Core.Logic.TaskManagement.ITaskManager - Start executing PO generation task for SO=aa4379bf-031d-4472-a0e1-a14e00974a26
2015-01-28 10:19:19,204 [748e03c8-dc1f-48d9-bb2e-fa8b79e70be5] WARN  Eproc2.Core.Logic.Base.BloBase - Trying to group appointments for SO.Id=aa4379bf-031d-4472-a0e1-a14e00974a26
2015-01-28 10:19:19,204 [748e03c8-dc1f-48d9-bb2e-fa8b79e70be5] WARN  Eproc2.Core.Logic.Base.BloBase - SO grouping start date=4/1/2013 12:00:00 AM, OrderGroupPeriod=4
2015-01-28 10:19:19,204 [748e03c8-dc1f-48d9-bb2e-fa8b79e70be5] WARN  Eproc2.Core.Logic.Base.BloBase - Searching for unused appointments in range between 2/2/2015 12:00:00 AM and 3/1/2015 12:00:00 AM
2015-01-28 10:19:19,220 [748e03c8-dc1f-48d9-bb2e-fa8b79e70be5] WARN  Eproc2.Core.Logic.Base.BloBase - Found 0 appointments
2015-01-28 10:19:19,220 [748e03c8-dc1f-48d9-bb2e-fa8b79e70be5] WARN  Eproc2.Core.Logic.Base.BloBase - Abort grouping: No appointments to group. Setting so.LGPED=3/1/2015 12:00:00 AM
2015-01-28 10:19:19,235 [748e03c8-dc1f-48d9-bb2e-fa8b79e70be5] WARN  Eproc2.Core.Logic.TaskManagement.ITaskManager - Assuming that not all SOs are processed.Pushing another task
2015-01-28 10:19:19,609 [748e03c8-dc1f-48d9-bb2e-fa8b79e70be5] WARN  Eproc2.Core.Logic.TaskManagement.ITaskManager - Start executing PO generation task for SO=7dfeeb73-9a57-4419-93f6-a1570108761b
2015-01-28 10:19:19,609 [748e03c8-dc1f-48d9-bb2e-fa8b79e70be5] WARN  Eproc2.Core.Logic.Base.BloBase - Trying to group appointments for SO.Id=7dfeeb73-9a57-4419-93f6-a1570108761b
2015-01-28 10:19:19,609 [748e03c8-dc1f-48d9-bb2e-fa8b79e70be5] WARN  Eproc2.Core.Logic.Base.BloBase - SO grouping start date=4/1/2013 12:00:00 AM, OrderGroupPeriod=4
2015-01-28 10:19:19,609 [748e03c8-dc1f-48d9-bb2e-fa8b79e70be5] WARN  Eproc2.Core.Logic.Base.BloBase - Searching for unused appointments in range between 2/2/2015 12:00:00 AM and 3/1/2015 12:00:00 AM
2015-01-28 10:19:19,625 [748e03c8-dc1f-48d9-bb2e-fa8b79e70be5] WARN  Eproc2.Core.Logic.Base.BloBase - Found 0 appointments
2015-01-28 10:19:19,625 [748e03c8-dc1f-48d9-bb2e-fa8b79e70be5] WARN  Eproc2.Core.Logic.Base.BloBase - Abort grouping: No appointments to group. Setting so.LGPED=3/1/2015 12:00:00 AM
2015-01-28 10:19:19,640 [748e03c8-dc1f-48d9-bb2e-fa8b79e70be5] WARN  Eproc2.Core.Logic.TaskManagement.ITaskManager - Assuming that not all SOs are processed.Pushing another task
2015-01-28 10:19:19,967 [748e03c8-dc1f-48d9-bb2e-fa8b79e70be5] WARN  Eproc2.Core.Logic.TaskManagement.ITaskManager - Start executing PO generation task for SO=cf577864-3339-4198-bf0c-a15d00cf05e7
2015-01-28 10:19:19,967 [748e03c8-dc1f-48d9-bb2e-fa8b79e70be5] WARN  Eproc2.Core.Logic.Base.BloBase - Trying to group appointments for SO.Id=cf577864-3339-4198-bf0c-a15d00cf05e7
2015-01-28 10:19:19,967 [748e03c8-dc1f-48d9-bb2e-fa8b79e70be5] WARN  Eproc2.Core.Logic.Base.BloBase - SO grouping start date=4/1/2013 12:00:00 AM, OrderGroupPeriod=4
2015-01-28 10:19:19,967 [748e03c8-dc1f-48d9-bb2e-fa8b79e70be5] WARN  Eproc2.Core.Logic.Base.BloBase - Searching for unused appointments in range between 2/2/2015 12:00:00 AM and 3/1/2015 12:00:00 AM
2015-01-28 10:19:19,983 [748e03c8-dc1f-48d9-bb2e-fa8b79e70be5] WARN  Eproc2.Core.Logic.Base.BloBase - Found 0 appointments
2015-01-28 10:19:19,983 [748e03c8-dc1f-48d9-bb2e-fa8b79e70be5] WARN  Eproc2.Core.Logic.Base.BloBase - Abort grouping: No appointments to group. Setting so.LGPED=3/1/2015 12:00:00 AM
2015-01-28 10:19:20,045 [748e03c8-dc1f-48d9-bb2e-fa8b79e70be5] WARN  Eproc2.Core.Logic.TaskManagement.ITaskManager - Assuming that not all SOs are processed.Pushing another task
2015-01-28 10:19:20,373 [748e03c8-dc1f-48d9-bb2e-fa8b79e70be5] WARN  Eproc2.Core.Logic.TaskManagement.ITaskManager - Start executing PO generation task for SO=d24b6a16-b73b-4549-9fe2-a15d00cf0827
2015-01-28 10:19:20,373 [748e03c8-dc1f-48d9-bb2e-fa8b79e70be5] WARN  Eproc2.Core.Logic.Base.BloBase - Trying to group appointments for SO.Id=d24b6a16-b73b-4549-9fe2-a15d00cf0827
2015-01-28 10:19:20,373 [748e03c8-dc1f-48d9-bb2e-fa8b79e70be5] WARN  Eproc2.Core.Logic.Base.BloBase - SO grouping start date=4/1/2013 12:00:00 AM, OrderGroupPeriod=4
2015-01-28 10:19:20,373 [748e03c8-dc1f-48d9-bb2e-fa8b79e70be5] WARN  Eproc2.Core.Logic.Base.BloBase - Searching for unused appointments in range between 2/2/2015 12:00:00 AM and 3/1/2015 12:00:00 AM
2015-01-28 10:19:20,388 [748e03c8-dc1f-48d9-bb2e-fa8b79e70be5] WARN  Eproc2.Core.Logic.Base.BloBase - Found 0 appointments
2015-01-28 10:19:20,388 [748e03c8-dc1f-48d9-bb2e-fa8b79e70be5] WARN  Eproc2.Core.Logic.Base.BloBase - Abort grouping: No appointments to group. Setting so.LGPED=3/1/2015 12:00:00 AM
2015-01-28 10:19:20,450 [748e03c8-dc1f-48d9-bb2e-fa8b79e70be5] WARN  Eproc2.Core.Logic.TaskManagement.ITaskManager - Assuming that not all SOs are processed.Pushing another task
2015-01-28 10:19:20,738 [748e03c8-dc1f-48d9-bb2e-fa8b79e70be5] WARN  Eproc2.Core.Logic.TaskManagement.ITaskManager - Start executing PO generation task for SO=dced506c-1fab-45fa-8b9b-a15d00cf09b1
2015-01-28 10:19:20,743 [748e03c8-dc1f-48d9-bb2e-fa8b79e70be5] WARN  Eproc2.Core.Logic.Base.BloBase - Trying to group appointments for SO.Id=dced506c-1fab-45fa-8b9b-a15d00cf09b1
2015-01-28 10:19:20,743 [748e03c8-dc1f-48d9-bb2e-fa8b79e70be5] WARN  Eproc2.Core.Logic.Base.BloBase - SO grouping start date=4/1/2013 12:00:00 AM, OrderGroupPeriod=4
2015-01-28 10:19:20,743 [748e03c8-dc1f-48d9-bb2e-fa8b79e70be5] WARN  Eproc2.Core.Logic.Base.BloBase - Searching for unused appointments in range between 2/2/2015 12:00:00 AM and 3/1/2015 12:00:00 AM
2015-01-28 10:19:20,844 [748e03c8-dc1f-48d9-bb2e-fa8b79e70be5] WARN  Eproc2.Core.Logic.Base.BloBase - Found 0 appointments
2015-01-28 10:19:20,844 [748e03c8-dc1f-48d9-bb2e-fa8b79e70be5] WARN  Eproc2.Core.Logic.Base.BloBase - Abort grouping: No appointments to group. Setting so.LGPED=3/1/2015 12:00:00 AM
2015-01-28 10:19:20,922 [748e03c8-dc1f-48d9-bb2e-fa8b79e70be5] WARN  Eproc2.Core.Logic.TaskManagement.ITaskManager - Assuming that not all SOs are processed.Pushing another task
2015-01-28 10:19:21,327 [748e03c8-dc1f-48d9-bb2e-fa8b79e70be5] WARN  Eproc2.Core.Logic.TaskManagement.ITaskManager - Start executing PO generation task for SO=1482aaa5-a113-4ebd-bd4e-a17000be4a58
2015-01-28 10:19:21,327 [748e03c8-dc1f-48d9-bb2e-fa8b79e70be5] WARN  Eproc2.Core.Logic.Base.BloBase - Trying to group appointments for SO.Id=1482aaa5-a113-4ebd-bd4e-a17000be4a58
2015-01-28 10:19:21,327 [748e03c8-dc1f-48d9-bb2e-fa8b79e70be5] WARN  Eproc2.Core.Logic.Base.BloBase - SO grouping start date=4/1/2013 12:00:00 AM, OrderGroupPeriod=4
2015-01-28 10:19:21,327 [748e03c8-dc1f-48d9-bb2e-fa8b79e70be5] WARN  Eproc2.Core.Logic.Base.BloBase - Searching for unused appointments in range between 2/2/2015 12:00:00 AM and 3/1/2015 12:00:00 AM
2015-01-28 10:19:21,343 [748e03c8-dc1f-48d9-bb2e-fa8b79e70be5] WARN  Eproc2.Core.Logic.Base.BloBase - Found 0 appointments
2015-01-28 10:19:21,343 [748e03c8-dc1f-48d9-bb2e-fa8b79e70be5] WARN  Eproc2.Core.Logic.Base.BloBase - Abort grouping: No appointments to group. Setting so.LGPED=3/1/2015 12:00:00 AM
2015-01-28 10:19:21,343 [748e03c8-dc1f-48d9-bb2e-fa8b79e70be5] WARN  Eproc2.Core.Logic.TaskManagement.ITaskManager - Assuming that not all SOs are processed.Pushing another task
2015-01-28 10:19:21,686 [748e03c8-dc1f-48d9-bb2e-fa8b79e70be5] WARN  Eproc2.Core.Logic.TaskManagement.ITaskManager - Start executing PO generation task for SO=342eaa12-dabf-4209-b192-a2c400e57c51
2015-01-28 10:19:21,686 [748e03c8-dc1f-48d9-bb2e-fa8b79e70be5] WARN  Eproc2.Core.Logic.Base.BloBase - Trying to group appointments for SO.Id=342eaa12-dabf-4209-b192-a2c400e57c51
2015-01-28 10:19:21,686 [748e03c8-dc1f-48d9-bb2e-fa8b79e70be5] WARN  Eproc2.Core.Logic.Base.BloBase - SO grouping start date=2/3/2014 12:00:00 AM, OrderGroupPeriod=4
2015-01-28 10:19:21,686 [748e03c8-dc1f-48d9-bb2e-fa8b79e70be5] WARN  Eproc2.Core.Logic.Base.BloBase - Searching for unused appointments in range between 3/3/2014 12:00:00 AM and 3/30/2014 12:00:00 AM
2015-01-28 10:19:21,701 [748e03c8-dc1f-48d9-bb2e-fa8b79e70be5] WARN  Eproc2.Core.Logic.Base.BloBase - Found 20 appointments
2015-01-28 10:19:21,701 [748e03c8-dc1f-48d9-bb2e-fa8b79e70be5] WARN  Eproc2.Core.Logic.Base.BloBase - Set PO GenerationStartDate=3/3/2014 12:00:00 AM, GroupingPeriodEndDate3/30/2014 12:00:00 AM
2015-01-28 10:19:21,717 [748e03c8-dc1f-48d9-bb2e-fa8b79e70be5] WARN  Eproc2.Core.Logic.Base.BloBase - Generating PI for SO.Prototype id=50d87364-c9e9-44e2-81b1-a2c400e57c52
2015-01-28 10:19:21,748 [748e03c8-dc1f-48d9-bb2e-fa8b79e70be5] FATAL Eproc2.Core.Logic.TaskManagement.ITaskManager - Exception occured in thread '748e03c8-dc1f-48d9-bb2e-fa8b79e70be5' during task execution: TaskId: 71f39d27-8462-4ca0-a753-00a6fe9cc4ce, Task: CreatePOActionTask
Context: Principal id: 84e00a31-26e4-4aa4-a1e7-963b27237fb8
System.NullReferenceException: Object reference not set to an instance of an object.
   at (Object , Object[] , SetterCallback )
   at NHibernate.Bytecode.Lightweight.AccessOptimizer.SetPropertyValues(Object target, Object[] values)
   at Qulix.Utils.ReflectUtil.ConvertToGenericList[T](IList list, List`1 properties)
   at Eproc2.Core.Entities.EntityHelper.ConvertToGenericList[T](IList list, List`1 properties)
   at Eproc2.BM.Logic.Process.POBlo.GetActualPurchaseItem(BM_POPrototypeEntity prototype)
   at Eproc2.BM.Logic.Process.POBlo.CreateEntity(IEnumerable`1 prototypes, BM_ScheduleOrderEntity so, DateTime creationDate, DateTime groupingStartDate, DateTime groupingEndDate)
   at Eproc2.BM.Logic.Process.POBlo.GeneratePoForSo(BM_ScheduleOrderEntity so)
   at Eproc2.BM.Logic.Process.POGenerationTask.ExecuteInternal()
   at Eproc2.Core.Logic.TaskManagement.TaskBase.Execute()
   at Eproc2.Core.Logic.TaskManagement.TaskThreadPool.ThreadProc()
2015-01-28 10:19:21,873 [748e03c8-dc1f-48d9-bb2e-fa8b79e70be5] WARN  Eproc2.Core.Logic.TaskManagement.ITaskManager - Start executing PO generation task for SO=342eaa12-dabf-4209-b192-a2c400e57c51
2015-01-28 10:19:21,873 [748e03c8-dc1f-48d9-bb2e-fa8b79e70be5] WARN  Eproc2.Core.Logic.Base.BloBase - Trying to group appointments for SO.Id=342eaa12-dabf-4209-b192-a2c400e57c51
2015-01-28 10:19:21,873 [748e03c8-dc1f-48d9-bb2e-fa8b79e70be5] WARN  Eproc2.Core.Logic.Base.BloBase - SO grouping start date=2/3/2014 12:00:00 AM, OrderGroupPeriod=4
2015-01-28 10:19:21,873 [748e03c8-dc1f-48d9-bb2e-fa8b79e70be5] WARN  Eproc2.Core.Logic.Base.BloBase - Searching for unused appointments in range between 3/3/2014 12:00:00 AM and 3/30/2014 12:00:00 AM
2015-01-28 10:19:21,888 [748e03c8-dc1f-48d9-bb2e-fa8b79e70be5] WARN  Eproc2.Core.Logic.Base.BloBase - Found 20 appointments
2015-01-28 10:19:21,888 [748e03c8-dc1f-48d9-bb2e-fa8b79e70be5] WARN  Eproc2.Core.Logic.Base.BloBase - Set PO GenerationStartDate=3/3/2014 12:00:00 AM, GroupingPeriodEndDate3/30/2014 12:00:00 AM
2015-01-28 10:19:21,920 [748e03c8-dc1f-48d9-bb2e-fa8b79e70be5] WARN  Eproc2.Core.Logic.Base.BloBase - Generating PI for SO.Prototype id=50d87364-c9e9-44e2-81b1-a2c400e57c52
2015-01-28 10:19:21,951 [748e03c8-dc1f-48d9-bb2e-fa8b79e70be5] FATAL Eproc2.Core.Logic.TaskManagement.ITaskManager - Exception occured in thread '748e03c8-dc1f-48d9-bb2e-fa8b79e70be5' during task execution: TaskId: 71f39d27-8462-4ca0-a753-00a6fe9cc4ce, Task: CreatePOActionTask
Context: Principal id: 84e00a31-26e4-4aa4-a1e7-963b27237fb8
System.NullReferenceException: Object reference not set to an instance of an object.
   at (Object , Object[] , SetterCallback )
   at NHibernate.Bytecode.Lightweight.AccessOptimizer.SetPropertyValues(Object target, Object[] values)
   at Qulix.Utils.ReflectUtil.ConvertToGenericList[T](IList list, List`1 properties)
   at Eproc2.Core.Entities.EntityHelper.ConvertToGenericList[T](IList list, List`1 properties)
   at Eproc2.BM.Logic.Process.POBlo.GetActualPurchaseItem(BM_POPrototypeEntity prototype)
   at Eproc2.BM.Logic.Process.POBlo.CreateEntity(IEnumerable`1 prototypes, BM_ScheduleOrderEntity so, DateTime creationDate, DateTime groupingStartDate, DateTime groupingEndDate)
   at Eproc2.BM.Logic.Process.POBlo.GeneratePoForSo(BM_ScheduleOrderEntity so)
   at Eproc2.BM.Logic.Process.POGenerationTask.ExecuteInternal()
   at Eproc2.Core.Logic.TaskManagement.TaskBase.Execute()
   at Eproc2.Core.Logic.TaskManagement.TaskThreadPool.ThreadProc()
2015-01-28 10:19:22,122 [748e03c8-dc1f-48d9-bb2e-fa8b79e70be5] WARN  Eproc2.Core.Logic.TaskManagement.ITaskManager - Start executing PO generation task for SO=342eaa12-dabf-4209-b192-a2c400e57c51
2015-01-28 10:19:22,122 [748e03c8-dc1f-48d9-bb2e-fa8b79e70be5] WARN  Eproc2.Core.Logic.Base.BloBase - Trying to group appointments for SO.Id=342eaa12-dabf-4209-b192-a2c400e57c51
2015-01-28 10:19:22,122 [748e03c8-dc1f-48d9-bb2e-fa8b79e70be5] WARN  Eproc2.Core.Logic.Base.BloBase - SO grouping start date=2/3/2014 12:00:00 AM, OrderGroupPeriod=4
2015-01-28 10:19:22,122 [748e03c8-dc1f-48d9-bb2e-fa8b79e70be5] WARN  Eproc2.Core.Logic.Base.BloBase - Searching for unused appointments in range between 3/3/2014 12:00:00 AM and 3/30/2014 12:00:00 AM
2015-01-28 10:19:22,138 [748e03c8-dc1f-48d9-bb2e-fa8b79e70be5] WARN  Eproc2.Core.Logic.Base.BloBase - Found 20 appointments
2015-01-28 10:19:22,138 [748e03c8-dc1f-48d9-bb2e-fa8b79e70be5] WARN  Eproc2.Core.Logic.Base.BloBase - Set PO GenerationStartDate=3/3/2014 12:00:00 AM, GroupingPeriodEndDate3/30/2014 12:00:00 AM
2015-01-28 10:19:22,169 [748e03c8-dc1f-48d9-bb2e-fa8b79e70be5] WARN  Eproc2.Core.Logic.Base.BloBase - Generating PI for SO.Prototype id=50d87364-c9e9-44e2-81b1-a2c400e57c52
2015-01-28 10:19:22,200 [748e03c8-dc1f-48d9-bb2e-fa8b79e70be5] FATAL Eproc2.Core.Logic.TaskManagement.ITaskManager - Exception occured in thread '748e03c8-dc1f-48d9-bb2e-fa8b79e70be5' during task execution: TaskId: 71f39d27-8462-4ca0-a753-00a6fe9cc4ce, Task: CreatePOActionTask
Context: Principal id: 84e00a31-26e4-4aa4-a1e7-963b27237fb8
System.NullReferenceException: Object reference not set to an instance of an object.
   at (Object , Object[] , SetterCallback )
   at NHibernate.Bytecode.Lightweight.AccessOptimizer.SetPropertyValues(Object target, Object[] values)
   at Qulix.Utils.ReflectUtil.ConvertToGenericList[T](IList list, List`1 properties)
   at Eproc2.Core.Entities.EntityHelper.ConvertToGenericList[T](IList list, List`1 properties)
   at Eproc2.BM.Logic.Process.POBlo.GetActualPurchaseItem(BM_POPrototypeEntity prototype)
   at Eproc2.BM.Logic.Process.POBlo.CreateEntity(IEnumerable`1 prototypes, BM_ScheduleOrderEntity so, DateTime creationDate, DateTime groupingStartDate, DateTime groupingEndDate)
   at Eproc2.BM.Logic.Process.POBlo.GeneratePoForSo(BM_ScheduleOrderEntity so)
   at Eproc2.BM.Logic.Process.POGenerationTask.ExecuteInternal()
   at Eproc2.Core.Logic.TaskManagement.TaskBase.Execute()
   at Eproc2.Core.Logic.TaskManagement.TaskThreadPool.ThreadProc()
2015-01-28 10:19:22,371 [748e03c8-dc1f-48d9-bb2e-fa8b79e70be5] WARN  Eproc2.Core.Logic.TaskManagement.ITaskManager - Start executing PO generation task for SO=d76b3c90-3b46-486e-b7bc-a1fd010e76d6
2015-01-28 10:19:22,371 [748e03c8-dc1f-48d9-bb2e-fa8b79e70be5] WARN  Eproc2.Core.Logic.Base.BloBase - Trying to group appointments for SO.Id=d76b3c90-3b46-486e-b7bc-a1fd010e76d6
2015-01-28 10:19:22,371 [748e03c8-dc1f-48d9-bb2e-fa8b79e70be5] WARN  Eproc2.Core.Logic.Base.BloBase - SO grouping start date=1/6/2014 12:00:00 AM, OrderGroupPeriod=4
2015-01-28 10:19:22,371 [748e03c8-dc1f-48d9-bb2e-fa8b79e70be5] WARN  Eproc2.Core.Logic.Base.BloBase - Searching for unused appointments in range between 2/2/2015 12:00:00 AM and 3/1/2015 12:00:00 AM
2015-01-28 10:19:22,387 [748e03c8-dc1f-48d9-bb2e-fa8b79e70be5] WARN  Eproc2.Core.Logic.Base.BloBase - Found 0 appointments
2015-01-28 10:19:22,387 [748e03c8-dc1f-48d9-bb2e-fa8b79e70be5] WARN  Eproc2.Core.Logic.Base.BloBase - Abort grouping: No appointments to group. Setting so.LGPED=3/1/2015 12:00:00 AM
2015-01-28 10:19:22,387 [748e03c8-dc1f-48d9-bb2e-fa8b79e70be5] WARN  Eproc2.Core.Logic.TaskManagement.ITaskManager - Assuming that not all SOs are processed.Pushing another task
2015-01-28 10:19:22,699 [748e03c8-dc1f-48d9-bb2e-fa8b79e70be5] WARN  Eproc2.Core.Logic.TaskManagement.ITaskManager - Start executing PO generation task for SO=342eaa12-dabf-4209-b192-a2c400e57c51
2015-01-28 10:19:22,699 [748e03c8-dc1f-48d9-bb2e-fa8b79e70be5] WARN  Eproc2.Core.Logic.Base.BloBase - Trying to group appointments for SO.Id=342eaa12-dabf-4209-b192-a2c400e57c51
2015-01-28 10:19:22,699 [748e03c8-dc1f-48d9-bb2e-fa8b79e70be5] WARN  Eproc2.Core.Logic.Base.BloBase - SO grouping start date=2/3/2014 12:00:00 AM, OrderGroupPeriod=4
2015-01-28 10:19:22,699 [748e03c8-dc1f-48d9-bb2e-fa8b79e70be5] WARN  Eproc2.Core.Logic.Base.BloBase - Searching for unused appointments in range between 3/3/2014 12:00:00 AM and 3/30/2014 12:00:00 AM
2015-01-28 10:19:22,714 [748e03c8-dc1f-48d9-bb2e-fa8b79e70be5] WARN  Eproc2.Core.Logic.Base.BloBase - Found 20 appointments
2015-01-28 10:19:22,714 [748e03c8-dc1f-48d9-bb2e-fa8b79e70be5] WARN  Eproc2.Core.Logic.Base.BloBase - Set PO GenerationStartDate=3/3/2014 12:00:00 AM, GroupingPeriodEndDate3/30/2014 12:00:00 AM
2015-01-28 10:19:22,730 [748e03c8-dc1f-48d9-bb2e-fa8b79e70be5] WARN  Eproc2.Core.Logic.Base.BloBase - Generating PI for SO.Prototype id=50d87364-c9e9-44e2-81b1-a2c400e57c52
2015-01-28 10:19:22,761 [748e03c8-dc1f-48d9-bb2e-fa8b79e70be5] FATAL Eproc2.Core.Logic.TaskManagement.ITaskManager - Exception occured in thread '748e03c8-dc1f-48d9-bb2e-fa8b79e70be5' during task execution: TaskId: 5453197e-8fb4-4f12-b8f9-77b31ce34825, Task: CreatePOActionTask
Context: Principal id: 84e00a31-26e4-4aa4-a1e7-963b27237fb8
System.NullReferenceException: Object reference not set to an instance of an object.
   at (Object , Object[] , SetterCallback )
   at NHibernate.Bytecode.Lightweight.AccessOptimizer.SetPropertyValues(Object target, Object[] values)
   at Qulix.Utils.ReflectUtil.ConvertToGenericList[T](IList list, List`1 properties)
   at Eproc2.Core.Entities.EntityHelper.ConvertToGenericList[T](IList list, List`1 properties)
   at Eproc2.BM.Logic.Process.POBlo.GetActualPurchaseItem(BM_POPrototypeEntity prototype)
   at Eproc2.BM.Logic.Process.POBlo.CreateEntity(IEnumerable`1 prototypes, BM_ScheduleOrderEntity so, DateTime creationDate, DateTime groupingStartDate, DateTime groupingEndDate)
   at Eproc2.BM.Logic.Process.POBlo.GeneratePoForSo(BM_ScheduleOrderEntity so)
   at Eproc2.BM.Logic.Process.POGenerationTask.ExecuteInternal()
   at Eproc2.Core.Logic.TaskManagement.TaskBase.Execute()
   at Eproc2.Core.Logic.TaskManagement.TaskThreadPool.ThreadProc()
2015-01-28 10:19:22,886 [748e03c8-dc1f-48d9-bb2e-fa8b79e70be5] WARN  Eproc2.Core.Logic.TaskManagement.ITaskManager - Start executing PO generation task for SO=342eaa12-dabf-4209-b192-a2c400e57c51
2015-01-28 10:19:22,886 [748e03c8-dc1f-48d9-bb2e-fa8b79e70be5] WARN  Eproc2.Core.Logic.Base.BloBase - Trying to group appointments for SO.Id=342eaa12-dabf-4209-b192-a2c400e57c51
2015-01-28 10:19:22,886 [748e03c8-dc1f-48d9-bb2e-fa8b79e70be5] WARN  Eproc2.Core.Logic.Base.BloBase - SO grouping start date=2/3/2014 12:00:00 AM, OrderGroupPeriod=4
2015-01-28 10:19:22,886 [748e03c8-dc1f-48d9-bb2e-fa8b79e70be5] WARN  Eproc2.Core.Logic.Base.BloBase - Searching for unused appointments in range between 3/3/2014 12:00:00 AM and 3/30/2014 12:00:00 AM
2015-01-28 10:19:22,901 [748e03c8-dc1f-48d9-bb2e-fa8b79e70be5] WARN  Eproc2.Core.Logic.Base.BloBase - Found 20 appointments
2015-01-28 10:19:22,901 [748e03c8-dc1f-48d9-bb2e-fa8b79e70be5] WARN  Eproc2.Core.Logic.Base.BloBase - Set PO GenerationStartDate=3/3/2014 12:00:00 AM, GroupingPeriodEndDate3/30/2014 12:00:00 AM
2015-01-28 10:19:22,917 [748e03c8-dc1f-48d9-bb2e-fa8b79e70be5] WARN  Eproc2.Core.Logic.Base.BloBase - Generating PI for SO.Prototype id=50d87364-c9e9-44e2-81b1-a2c400e57c52
2015-01-28 10:19:22,932 [748e03c8-dc1f-48d9-bb2e-fa8b79e70be5] FATAL Eproc2.Core.Logic.TaskManagement.ITaskManager - Exception occured in thread '748e03c8-dc1f-48d9-bb2e-fa8b79e70be5' during task execution: TaskId: 5453197e-8fb4-4f12-b8f9-77b31ce34825, Task: CreatePOActionTask
Context: Principal id: 84e00a31-26e4-4aa4-a1e7-963b27237fb8
System.NullReferenceException: Object reference not set to an instance of an object.
   at (Object , Object[] , SetterCallback )
   at NHibernate.Bytecode.Lightweight.AccessOptimizer.SetPropertyValues(Object target, Object[] values)
   at Qulix.Utils.ReflectUtil.ConvertToGenericList[T](IList list, List`1 properties)
   at Eproc2.Core.Entities.EntityHelper.ConvertToGenericList[T](IList list, List`1 properties)
   at Eproc2.BM.Logic.Process.POBlo.GetActualPurchaseItem(BM_POPrototypeEntity prototype)
   at Eproc2.BM.Logic.Process.POBlo.CreateEntity(IEnumerable`1 prototypes, BM_ScheduleOrderEntity so, DateTime creationDate, DateTime groupingStartDate, DateTime groupingEndDate)
   at Eproc2.BM.Logic.Process.POBlo.GeneratePoForSo(BM_ScheduleOrderEntity so)
   at Eproc2.BM.Logic.Process.POGenerationTask.ExecuteInternal()
   at Eproc2.Core.Logic.TaskManagement.TaskBase.Execute()
   at Eproc2.Core.Logic.TaskManagement.TaskThreadPool.ThreadProc()
2015-01-28 10:19:23,088 [748e03c8-dc1f-48d9-bb2e-fa8b79e70be5] WARN  Eproc2.Core.Logic.TaskManagement.ITaskManager - Start executing PO generation task for SO=342eaa12-dabf-4209-b192-a2c400e57c51
2015-01-28 10:19:23,088 [748e03c8-dc1f-48d9-bb2e-fa8b79e70be5] WARN  Eproc2.Core.Logic.Base.BloBase - Trying to group appointments for SO.Id=342eaa12-dabf-4209-b192-a2c400e57c51
2015-01-28 10:19:23,088 [748e03c8-dc1f-48d9-bb2e-fa8b79e70be5] WARN  Eproc2.Core.Logic.Base.BloBase - SO grouping start date=2/3/2014 12:00:00 AM, OrderGroupPeriod=4
2015-01-28 10:19:23,088 [748e03c8-dc1f-48d9-bb2e-fa8b79e70be5] WARN  Eproc2.Core.Logic.Base.BloBase - Searching for unused appointments in range between 3/3/2014 12:00:00 AM and 3/30/2014 12:00:00 AM
2015-01-28 10:19:23,088 [748e03c8-dc1f-48d9-bb2e-fa8b79e70be5] WARN  Eproc2.Core.Logic.Base.BloBase - Found 20 appointments
2015-01-28 10:19:23,088 [748e03c8-dc1f-48d9-bb2e-fa8b79e70be5] WARN  Eproc2.Core.Logic.Base.BloBase - Set PO GenerationStartDate=3/3/2014 12:00:00 AM, GroupingPeriodEndDate3/30/2014 12:00:00 AM
2015-01-28 10:19:23,119 [748e03c8-dc1f-48d9-bb2e-fa8b79e70be5] WARN  Eproc2.Core.Logic.Base.BloBase - Generating PI for SO.Prototype id=50d87364-c9e9-44e2-81b1-a2c400e57c52
2015-01-28 10:19:23,150 [748e03c8-dc1f-48d9-bb2e-fa8b79e70be5] FATAL Eproc2.Core.Logic.TaskManagement.ITaskManager - Exception occured in thread '748e03c8-dc1f-48d9-bb2e-fa8b79e70be5' during task execution: TaskId: 5453197e-8fb4-4f12-b8f9-77b31ce34825, Task: CreatePOActionTask
Context: Principal id: 84e00a31-26e4-4aa4-a1e7-963b27237fb8
System.NullReferenceException: Object reference not set to an instance of an object.
   at (Object , Object[] , SetterCallback )
   at NHibernate.Bytecode.Lightweight.AccessOptimizer.SetPropertyValues(Object target, Object[] values)
   at Qulix.Utils.ReflectUtil.ConvertToGenericList[T](IList list, List`1 properties)
   at Eproc2.Core.Entities.EntityHelper.ConvertToGenericList[T](IList list, List`1 properties)
   at Eproc2.BM.Logic.Process.POBlo.GetActualPurchaseItem(BM_POPrototypeEntity prototype)
   at Eproc2.BM.Logic.Process.POBlo.CreateEntity(IEnumerable`1 prototypes, BM_ScheduleOrderEntity so, DateTime creationDate, DateTime groupingStartDate, DateTime groupingEndDate)
   at Eproc2.BM.Logic.Process.POBlo.GeneratePoForSo(BM_ScheduleOrderEntity so)
   at Eproc2.BM.Logic.Process.POGenerationTask.ExecuteInternal()
   at Eproc2.Core.Logic.TaskManagement.TaskBase.Execute()
   at Eproc2.Core.Logic.TaskManagement.TaskThreadPool.ThreadProc()
2015-01-28 10:19:23,306 [748e03c8-dc1f-48d9-bb2e-fa8b79e70be5] WARN  Eproc2.Core.Logic.TaskManagement.ITaskManager - Start executing PO generation task for SO=342eaa12-dabf-4209-b192-a2c400e57c51
2015-01-28 10:19:23,306 [748e03c8-dc1f-48d9-bb2e-fa8b79e70be5] WARN  Eproc2.Core.Logic.Base.BloBase - Trying to group appointments for SO.Id=342eaa12-dabf-4209-b192-a2c400e57c51
2015-01-28 10:19:23,306 [748e03c8-dc1f-48d9-bb2e-fa8b79e70be5] WARN  Eproc2.Core.Logic.Base.BloBase - SO grouping start date=2/3/2014 12:00:00 AM, OrderGroupPeriod=4
2015-01-28 10:19:23,306 [748e03c8-dc1f-48d9-bb2e-fa8b79e70be5] WARN  Eproc2.Core.Logic.Base.BloBase - Searching for unused appointments in range between 3/3/2014 12:00:00 AM and 3/30/2014 12:00:00 AM
2015-01-28 10:19:23,322 [748e03c8-dc1f-48d9-bb2e-fa8b79e70be5] WARN  Eproc2.Core.Logic.Base.BloBase - Found 20 appointments
2015-01-28 10:19:23,322 [748e03c8-dc1f-48d9-bb2e-fa8b79e70be5] WARN  Eproc2.Core.Logic.Base.BloBase - Set PO GenerationStartDate=3/3/2014 12:00:00 AM, GroupingPeriodEndDate3/30/2014 12:00:00 AM
2015-01-28 10:19:23,353 [748e03c8-dc1f-48d9-bb2e-fa8b79e70be5] WARN  Eproc2.Core.Logic.Base.BloBase - Generating PI for SO.Prototype id=50d87364-c9e9-44e2-81b1-a2c400e57c52
2015-01-28 10:19:23,369 [748e03c8-dc1f-48d9-bb2e-fa8b79e70be5] FATAL Eproc2.Core.Logic.TaskManagement.ITaskManager - Exception occured in thread '748e03c8-dc1f-48d9-bb2e-fa8b79e70be5' during task execution: TaskId: 5453197e-8fb4-4f12-b8f9-77b31ce34825, Task: CreatePOActionTask
Context: Principal id: 84e00a31-26e4-4aa4-a1e7-963b27237fb8
System.NullReferenceException: Object reference not set to an instance of an object.
   at (Object , Object[] , SetterCallback )
   at NHibernate.Bytecode.Lightweight.AccessOptimizer.SetPropertyValues(Object target, Object[] values)
   at Qulix.Utils.ReflectUtil.ConvertToGenericList[T](IList list, List`1 properties)
   at Eproc2.Core.Entities.EntityHelper.ConvertToGenericList[T](IList list, List`1 properties)
   at Eproc2.BM.Logic.Process.POBlo.GetActualPurchaseItem(BM_POPrototypeEntity prototype)
   at Eproc2.BM.Logic.Process.POBlo.CreateEntity(IEnumerable`1 prototypes, BM_ScheduleOrderEntity so, DateTime creationDate, DateTime groupingStartDate, DateTime groupingEndDate)
   at Eproc2.BM.Logic.Process.POBlo.GeneratePoForSo(BM_ScheduleOrderEntity so)
   at Eproc2.BM.Logic.Process.POGenerationTask.ExecuteInternal()
   at Eproc2.Core.Logic.TaskManagement.TaskBase.Execute()
   at Eproc2.Core.Logic.TaskManagement.TaskThreadPool.ThreadProc()
2015-01-28 10:19:23,602 [748e03c8-dc1f-48d9-bb2e-fa8b79e70be5] WARN  Eproc2.Core.Logic.TaskManagement.ITaskManager - Start executing PO generation task for SO=342eaa12-dabf-4209-b192-a2c400e57c51
2015-01-28 10:19:23,602 [748e03c8-dc1f-48d9-bb2e-fa8b79e70be5] WARN  Eproc2.Core.Logic.Base.BloBase - Trying to group appointments for SO.Id=342eaa12-dabf-4209-b192-a2c400e57c51
2015-01-28 10:19:23,602 [748e03c8-dc1f-48d9-bb2e-fa8b79e70be5] WARN  Eproc2.Core.Logic.Base.BloBase - SO grouping start date=2/3/2014 12:00:00 AM, OrderGroupPeriod=4
2015-01-28 10:19:23,602 [748e03c8-dc1f-48d9-bb2e-fa8b79e70be5] WARN  Eproc2.Core.Logic.Base.BloBase - Searching for unused appointments in range between 3/3/2014 12:00:00 AM and 3/30/2014 12:00:00 AM
2015-01-28 10:19:23,618 [748e03c8-dc1f-48d9-bb2e-fa8b79e70be5] WARN  Eproc2.Core.Logic.Base.BloBase - Found 20 appointments
2015-01-28 10:19:23,618 [748e03c8-dc1f-48d9-bb2e-fa8b79e70be5] WARN  Eproc2.Core.Logic.Base.BloBase - Set PO GenerationStartDate=3/3/2014 12:00:00 AM, GroupingPeriodEndDate3/30/2014 12:00:00 AM
2015-01-28 10:19:23,665 [748e03c8-dc1f-48d9-bb2e-fa8b79e70be5] WARN  Eproc2.Core.Logic.Base.BloBase - Generating PI for SO.Prototype id=50d87364-c9e9-44e2-81b1-a2c400e57c52
2015-01-28 10:19:23,696 [748e03c8-dc1f-48d9-bb2e-fa8b79e70be5] FATAL Eproc2.Core.Logic.TaskManagement.ITaskManager - Exception occured in thread '748e03c8-dc1f-48d9-bb2e-fa8b79e70be5' during task execution: TaskId: 5453197e-8fb4-4f12-b8f9-77b31ce34825, Task: CreatePOActionTask
Context: Principal id: 84e00a31-26e4-4aa4-a1e7-963b27237fb8
System.NullReferenceException: Object reference not set to an instance of an object.
   at (Object , Object[] , SetterCallback )
   at NHibernate.Bytecode.Lightweight.AccessOptimizer.SetPropertyValues(Object target, Object[] values)
   at Qulix.Utils.ReflectUtil.ConvertToGenericList[T](IList list, List`1 properties)
   at Eproc2.Core.Entities.EntityHelper.ConvertToGenericList[T](IList list, List`1 properties)
   at Eproc2.BM.Logic.Process.POBlo.GetActualPurchaseItem(BM_POPrototypeEntity prototype)
   at Eproc2.BM.Logic.Process.POBlo.CreateEntity(IEnumerable`1 prototypes, BM_ScheduleOrderEntity so, DateTime creationDate, DateTime groupingStartDate, DateTime groupingEndDate)
   at Eproc2.BM.Logic.Process.POBlo.GeneratePoForSo(BM_ScheduleOrderEntity so)
   at Eproc2.BM.Logic.Process.POGenerationTask.ExecuteInternal()
   at Eproc2.Core.Logic.TaskManagement.TaskBase.Execute()
   at Eproc2.Core.Logic.TaskManagement.TaskThreadPool.ThreadProc()
2015-01-28 10:19:26,391 [20] ERROR Eproc2.BM.Logic.TaskManagement.ExpiredPrincipalCleansingService - Error has been occured during deleting expired principal 5a8427c9-3e23-4957-926f-a0d600f3ac52. Details error: 
2015-01-28 10:19:26,469 [20] ERROR Eproc2.BM.Logic.TaskManagement.ExpiredPrincipalCleansingService - Error has been occured during deleting expired principal 8fd44aac-b7f7-4adb-9718-a0d700aa36aa. Details error: 
2015-01-28 10:19:26,532 [20] ERROR Eproc2.BM.Logic.TaskManagement.ExpiredPrincipalCleansingService - Error has been occured during deleting expired principal ecbaf77b-3788-49aa-be58-a0d700b6be85. Details error: 
2015-01-28 10:19:26,578 [20] ERROR Eproc2.BM.Logic.TaskManagement.ExpiredPrincipalCleansingService - Error has been occured during deleting expired principal 1fba7fe0-5be8-46b1-ad70-a0d700b792cb. Details error: 
2015-01-28 10:19:26,656 [20] ERROR Eproc2.BM.Logic.TaskManagement.ExpiredPrincipalCleansingService - Error has been occured during deleting expired principal b0c7b37e-ee82-46ed-b405-a0d700b89504. Details error: 
2015-01-28 10:19:26,719 [20] ERROR Eproc2.BM.Logic.TaskManagement.ExpiredPrincipalCleansingService - Error has been occured during deleting expired principal 90886760-7343-4752-b53f-a0d700c3578d. Details error: 
2015-01-28 10:19:26,812 [20] ERROR Eproc2.BM.Logic.TaskManagement.ExpiredPrincipalCleansingService - Error has been occured during deleting expired principal 96a7d60d-ae8f-4e2b-9ea5-a0de00a87a2f. Details error: 
2015-01-28 10:19:26,874 [20] ERROR Eproc2.BM.Logic.TaskManagement.ExpiredPrincipalCleansingService - Error has been occured during deleting expired principal 88172038-ca0d-4d05-9941-a0fa00e6c4aa. Details error: 
2015-01-28 10:19:26,937 [20] ERROR Eproc2.BM.Logic.TaskManagement.ExpiredPrincipalCleansingService - Error has been occured during deleting expired principal 361c46df-d5a6-4b26-83ee-a0fc009e81de. Details error: 
2015-01-28 10:19:26,999 [20] ERROR Eproc2.BM.Logic.TaskManagement.ExpiredPrincipalCleansingService - Error has been occured during deleting expired principal bd4e0539-5ccd-4de9-8651-a10e00f41e28. Details error: 
2015-01-28 10:19:27,030 [20] ERROR Eproc2.BM.Logic.TaskManagement.ExpiredPrincipalCleansingService - Error has been occured during deleting expired principal 1a6c4746-c681-4f40-afdf-a10e00fcbf1c. Details error: 
2015-01-28 10:19:27,108 [20] ERROR Eproc2.BM.Logic.TaskManagement.ExpiredPrincipalCleansingService - Error has been occured during deleting expired principal 8b212c1b-d370-439f-b987-a10f009ea672. Details error: 
2015-01-28 10:19:27,155 [20] ERROR Eproc2.BM.Logic.TaskManagement.ExpiredPrincipalCleansingService - Error has been occured during deleting expired principal 5dd90242-d3cd-475e-8b0d-a14f00a2c1aa. Details error: 
2015-01-28 10:19:27,233 [20] ERROR Eproc2.BM.Logic.TaskManagement.ExpiredPrincipalCleansingService - Error has been occured during deleting expired principal 10b3b7a9-10ed-40bf-9ec6-a19400ed268a. Details error: 
2015-01-28 10:19:27,280 [20] ERROR Eproc2.BM.Logic.TaskManagement.ExpiredPrincipalCleansingService - Error has been occured during deleting expired principal 81c4cf8f-cf36-4741-8349-a1a400d38f39. Details error: 
2015-01-28 10:19:27,342 [20] ERROR Eproc2.BM.Logic.TaskManagement.ExpiredPrincipalCleansingService - Error has been occured during deleting expired principal 66f0cce8-e9c7-4373-be24-a1a400d3f13f. Details error: 
2015-01-28 10:19:27,404 [20] ERROR Eproc2.BM.Logic.TaskManagement.ExpiredPrincipalCleansingService - Error has been occured during deleting expired principal 584268b5-11a3-4f39-b1e0-a1e30189c4ff. Details error: 
2015-01-28 10:19:27,451 [20] ERROR Eproc2.BM.Logic.TaskManagement.ExpiredPrincipalCleansingService - Error has been occured during deleting expired principal ae557973-c4a5-47dd-8052-a1e400b4333e. Details error: 
2015-01-28 10:19:27,513 [20] ERROR Eproc2.BM.Logic.TaskManagement.ExpiredPrincipalCleansingService - Error has been occured during deleting expired principal d0f6ed1d-9897-4b88-bd3d-a1f200b1a1a2. Details error: 
2015-01-28 10:19:29,258 [20] ERROR Eproc2.BM.Logic.TaskManagement.ExpiredPrincipalCleansingService - Error has been occured during deleting expired principal f5ed4261-28b0-4cfb-b3e4-a21300ad3639. Details error: It's not possible to delete item which is in use.
2015-01-28 10:19:29,321 [20] ERROR Eproc2.BM.Logic.TaskManagement.ExpiredPrincipalCleansingService - Error has been occured during deleting expired principal dfd19d94-418f-43dd-b2d6-a22d00d9cbda. Details error: 
2015-01-28 10:19:29,399 [20] ERROR Eproc2.BM.Logic.TaskManagement.ExpiredPrincipalCleansingService - Error has been occured during deleting expired principal 3d7da05f-34fa-4341-add7-a23000b2456c. Details error: 
2015-01-28 10:19:29,445 [20] ERROR Eproc2.BM.Logic.TaskManagement.ExpiredPrincipalCleansingService - Error has been occured during deleting expired principal 9cba9adf-7fca-42c5-936f-a23c00fdb51e. Details error: 
2015-01-28 10:19:29,508 [20] ERROR Eproc2.BM.Logic.TaskManagement.ExpiredPrincipalCleansingService - Error has been occured during deleting expired principal e051f1f5-3f0e-4f24-811d-a23c01004a22. Details error: 
2015-01-28 10:19:30,411 [20] ERROR Eproc2.BM.Logic.TaskManagement.ExpiredPrincipalCleansingService - Error has been occured during deleting expired principal fb96d831-74c9-467c-b0ff-a23c0100dca4. Details error: It's not possible to delete item which is in use.
2015-01-28 10:19:31,066 [20] ERROR Eproc2.BM.Logic.TaskManagement.ExpiredPrincipalCleansingService - Error has been occured during deleting expired principal 8c8d52bb-98ab-4d28-bc87-a23c010167aa. Details error: It's not possible to delete item which is in use.
2015-01-28 10:19:31,596 [748e03c8-dc1f-48d9-bb2e-fa8b79e70be5] WARN  Eproc2.Core.Logic.TaskManagement.ITaskManager - Found no invoices to process
2015-01-28 10:19:31,689 [20] ERROR Eproc2.BM.Logic.TaskManagement.ExpiredPrincipalCleansingService - Error has been occured during deleting expired principal 4b1f9b5a-4b59-4171-b27d-a23c0101e09a. Details error: It's not possible to delete item which is in use.
2015-01-28 10:19:31,783 [20] ERROR Eproc2.BM.Logic.TaskManagement.ExpiredPrincipalCleansingService - Error has been occured during deleting expired principal 879335fe-286a-4c20-9f71-a24b00fb7200. Details error: 
2015-01-28 10:19:31,829 [20] ERROR Eproc2.BM.Logic.TaskManagement.ExpiredPrincipalCleansingService - Error has been occured during deleting expired principal 06d47aa0-5e89-4b63-ac3a-a25000c4005c. Details error: 
2015-01-28 10:19:31,876 [20] ERROR Eproc2.BM.Logic.TaskManagement.ExpiredPrincipalCleansingService - Error has been occured during deleting expired principal 8ff9aec2-7730-44ba-88ce-a25000c45f8b. Details error: 
2015-01-28 10:19:31,923 [20] ERROR Eproc2.BM.Logic.TaskManagement.ExpiredPrincipalCleansingService - Error has been occured during deleting expired principal 04652cef-206a-4603-a00f-a2590117adf1. Details error: 
2015-01-28 10:19:32,640 [20] ERROR Eproc2.BM.Logic.TaskManagement.ExpiredPrincipalCleansingService - Error has been occured during deleting expired principal 1d6ae4b5-b213-493f-b84a-a25a00b60bc3. Details error: It's not possible to delete item which is in use.
2015-01-28 10:19:33,278 [20] ERROR Eproc2.BM.Logic.TaskManagement.ExpiredPrincipalCleansingService - Error has been occured during deleting expired principal 957cc2dc-5d82-4633-9cc6-a25a00b8399a. Details error: It's not possible to delete item which is in use.
2015-01-28 10:19:33,947 [20] ERROR Eproc2.BM.Logic.TaskManagement.ExpiredPrincipalCleansingService - Error has been occured during deleting expired principal 522c82ff-c4cb-404a-ad51-a25a00b8e50f. Details error: It's not possible to delete item which is in use.
2015-01-28 10:19:34,647 [20] ERROR Eproc2.BM.Logic.TaskManagement.ExpiredPrincipalCleansingService - Error has been occured during deleting expired principal c59cb14e-225f-47f0-8a25-a25a00bad1aa. Details error: It's not possible to delete item which is in use.
2015-01-28 10:19:34,693 [20] ERROR Eproc2.BM.Logic.TaskManagement.ExpiredPrincipalCleansingService - Error has been occured during deleting expired principal 8be447ef-199a-44ae-8d8d-a25a00c141b1. Details error: 
2015-01-28 10:19:34,787 [20] ERROR Eproc2.BM.Logic.TaskManagement.ExpiredPrincipalCleansingService - Error has been occured during deleting expired principal 3b180d16-a10b-4903-b09d-a26f00b4d473. Details error: 
2015-01-28 10:19:34,849 [20] ERROR Eproc2.BM.Logic.TaskManagement.ExpiredPrincipalCleansingService - Error has been occured during deleting expired principal 1fa07d38-b9bc-46e8-a54b-a26f00b61dd1. Details error: 
2015-01-28 10:19:34,911 [20] ERROR Eproc2.BM.Logic.TaskManagement.ExpiredPrincipalCleansingService - Error has been occured during deleting expired principal f73de12d-6baf-4b15-9549-a26f00b7628b. Details error: 
2015-01-28 10:19:34,974 [20] ERROR Eproc2.BM.Logic.TaskManagement.ExpiredPrincipalCleansingService - Error has been occured during deleting expired principal 5d6f3254-d3f1-40a0-869f-a26f00b8441f. Details error: 
2015-01-28 10:19:35,067 [20] ERROR Eproc2.BM.Logic.TaskManagement.ExpiredPrincipalCleansingService - Error has been occured during deleting expired principal dc2094e6-73e9-42a6-a2c7-a26f00b9073d. Details error: 
2015-01-28 10:19:35,223 [20] ERROR Eproc2.BM.Logic.TaskManagement.ExpiredPrincipalCleansingService - Error has been occured during deleting expired principal 94d2735a-ae1e-42f7-8151-a26f00b9f09b. Details error: 
2015-01-28 10:19:35,332 [20] ERROR Eproc2.BM.Logic.TaskManagement.ExpiredPrincipalCleansingService - Error has been occured during deleting expired principal 1abe4dc3-777c-4ed4-86fd-a26f00bb6f82. Details error: 
2015-01-28 10:19:35,430 [20] ERROR Eproc2.BM.Logic.TaskManagement.ExpiredPrincipalCleansingService - Error has been occured during deleting expired principal 1dc822a6-4b29-4376-9699-a26f00bc8f2e. Details error: 
2015-01-28 10:19:35,539 [20] ERROR Eproc2.BM.Logic.TaskManagement.ExpiredPrincipalCleansingService - Error has been occured during deleting expired principal 912fbe6a-11df-4e8d-9605-a27300e163c3. Details error: 
2015-01-28 10:19:35,601 [20] ERROR Eproc2.BM.Logic.TaskManagement.ExpiredPrincipalCleansingService - Error has been occured during deleting expired principal 4cb7a2d0-12a6-4dd9-8c03-a29600be970d. Details error: 
2015-01-28 10:19:35,664 [20] ERROR Eproc2.BM.Logic.TaskManagement.ExpiredPrincipalCleansingService - Error has been occured during deleting expired principal f8c30926-163b-48d6-bb9c-a2c000ef641c. Details error: 
2015-01-28 10:19:35,726 [20] ERROR Eproc2.BM.Logic.TaskManagement.ExpiredPrincipalCleansingService - Error has been occured during deleting expired principal d3fc240a-4d50-408c-8663-a2c800bd353d. Details error: 
2015-01-28 10:19:35,773 [20] ERROR Eproc2.BM.Logic.TaskManagement.ExpiredPrincipalCleansingService - Error has been occured during deleting expired principal ae52f647-2163-402a-a08c-a2f200b1b10e. Details error: 
2015-01-28 10:19:37,233 [20] ERROR Eproc2.BM.Logic.TaskManagement.ExpiredPrincipalCleansingService - Error has been occured during deleting expired principal 75ffa6d1-9420-4310-9732-a2f301213299. Details error: It's not possible to delete item which is in use.
2015-01-28 10:19:37,373 [20] ERROR Eproc2.BM.Logic.TaskManagement.ExpiredPrincipalCleansingService - Error has been occured during deleting expired principal d3b471ca-4c87-4139-babf-a2fb00c83c34. Details error: 
2015-01-28 10:19:37,435 [20] ERROR Eproc2.BM.Logic.TaskManagement.ExpiredPrincipalCleansingService - Error has been occured during deleting expired principal d9ea443b-737e-4492-bf9e-a32400f1d17a. Details error: 
2015-01-28 10:19:38,806 [20] ERROR Eproc2.BM.Logic.TaskManagement.ExpiredPrincipalCleansingService - Error has been occured during deleting expired principal eec00c92-ddc6-488d-85be-a3a001429826. Details error: It's not possible to delete item which is in use.
2015-01-28 10:19:40,026 [20] ERROR Eproc2.BM.Logic.TaskManagement.ExpiredPrincipalCleansingService - Error has been occured during deleting expired principal 613e07a9-370d-42b8-a22e-a3a0014358d8. Details error: It's not possible to delete item which is in use.
2015-01-28 10:19:42,344 [20] ERROR Eproc2.BM.Logic.TaskManagement.ExpiredPrincipalCleansingService - Error has been occured during deleting expired principal a6138765-5728-4a0a-a2c6-a3a001440f8e. Details error: It's not possible to delete item which is in use.
2015-01-28 10:19:44,962 [20] ERROR Eproc2.BM.Logic.TaskManagement.ExpiredPrincipalCleansingService - Error has been occured during deleting expired principal dd379108-1c97-49b6-9a74-a3a00145493a. Details error: It's not possible to delete item which is in use.
2015-01-28 10:19:46,660 [20] ERROR Eproc2.BM.Logic.TaskManagement.ExpiredPrincipalCleansingService - Error has been occured during deleting expired principal de6eba98-fa47-4a77-aeaa-a3a001463151. Details error: It's not possible to delete item which is in use.
2015-01-28 10:19:48,000 [20] ERROR Eproc2.BM.Logic.TaskManagement.ExpiredPrincipalCleansingService - Error has been occured during deleting expired principal 3e4666af-44f0-407b-9223-a3a100f8c556. Details error: It's not possible to delete item which is in use.
2015-01-28 10:19:49,917 [20] ERROR Eproc2.BM.Logic.TaskManagement.ExpiredPrincipalCleansingService - Error has been occured during deleting expired principal a7b7a7e8-1078-4b80-8955-a3a300c1ccab. Details error: It's not possible to delete item which is in use.
2015-01-28 10:19:51,712 [20] ERROR Eproc2.BM.Logic.TaskManagement.ExpiredPrincipalCleansingService - Error has been occured during deleting expired principal ece1fbfb-c342-4cd5-8921-a3a300c2523a. Details error: It's not possible to delete item which is in use.
2015-01-28 10:19:51,899 [20] ERROR Eproc2.BM.Logic.TaskManagement.ExpiredPrincipalCleansingService - Error has been occured during deleting expired principal 4594239f-d12f-47c3-bc8d-a3a300c2d643. Details error: 
2015-01-28 10:19:53,208 [20] ERROR Eproc2.BM.Logic.TaskManagement.ExpiredPrincipalCleansingService - Error has been occured during deleting expired principal d6b52021-2aae-472b-ac59-a3e100af0689. Details error: It's not possible to delete item which is in use.
2015-01-28 10:19:54,626 [20] ERROR Eproc2.BM.Logic.TaskManagement.ExpiredPrincipalCleansingService - Error has been occured during deleting expired principal 8448c890-af48-4f1b-97f2-a3e100af9627. Details error: It's not possible to delete item which is in use.
2015-01-28 10:24:07,214 [7] ERROR Eproc2.Core.Logic.Synchronization.GlobalSynchronizationService - Exception during Synchronization Launch
System.ArgumentNullException: Value cannot be null.
Parameter name: transaction
   at Eproc2.Core.Logic.Synchronization.SyncBloBase.GetCommand(SqlConnection connection, SqlTransaction transaction, String cmdText)
   at Eproc2.Core.Logic.Synchronization.GlobalSyncBlo.IsInProgress()
   at Eproc2.Core.Logic.Synchronization.GlobalSynchronizationService.IsPossibleFatalErrorOccured()
   at Eproc2.Core.Logic.Synchronization.GlobalSynchronizationService.LaunchSynchronization()
